{
    "[dart]": {
        "editor.rulers": [
            80
        ],
        "editor.selectionHighlight": false,
        "editor.suggestSelection": "first",
        "editor.tabCompletion": "onlySnippets",
        "editor.wordBasedSuggestions": "off"
    },
    "dart.flutterCreateOrganization": "dev.iansantos",
    "dart.flutterCreatePlatforms": [
        "android",
        "ios"
    ],
    "dart.flutterShowEmulators": "always",
    "dart.previewFlutterUiGuides": true,
    "dart.previewFlutterUiGuidesCustomTracking": true,
    "dart.renameFilesWithClasses": "prompt",
    "dev.containers.dockerPath": "podman-remote",
    "diffEditor.ignoreTrimWhitespace": false,
    "diffEditor.renderSideBySide": false,
    "editor.codeActionsOnSave": {
        "source.fixAll": "explicit",
        "source.organizeImports": "explicit"
    },
    "editor.fontFamily": "JetBrainsMono Nerd Font",
    "editor.fontLigatures": true,
    "editor.formatOnSave": true,
    "editor.formatOnType": true,
    "editor.mouseWheelZoom": true,
    "editor.stickyScroll.enabled": true,
    "explorer.excludeGitIgnore": true,
    "explorer.fileNesting.enabled": true,
    "explorer.fileNesting.expand": false,
    "explorer.fileNesting.patterns": {
        "pubspec.yaml": "analysis_options.yaml, pubspec.lock, .metadata",
        "readme.*": "README.md",
        "*.dart": "${capture}.g.dart, ${capture}.freezed.dart"
    },
    "files.insertFinalNewline": true,
    "files.trimFinalNewlines": true,
    "files.trimTrailingWhitespace": true,
    "git.enableCommitSigning": true,
    "redhat.telemetry.enabled": false,
    "search.useGlobalIgnoreFiles": true,
    "security.workspace.trust.untrustedFiles": "newWindow",
    "terminal.integrated.defaultProfile.linux": "toolbox",
    "terminal.integrated.enablePersistentSessions": false,
    "terminal.integrated.fontFamily": "JetBrainsMono Nerd Font",
    "terminal.integrated.profiles.linux": {
        "toolbox": {
            "path": "flatpak-spawn",
            "args": [
                "--host",
                "toolbox",
                "run",
                "fish",
                "-P",
                "-C",
                "function fish_greeting; end"
            ]
        }
    },
    "update.mode": "none",
    "window.customTitleBarVisibility": "auto",
    "window.menuBarVisibility": "toggle",
    "yaml.format.singleQuote": true
}
